<?xml version="1.0" encoding="utf-8"?>
<!-- Generator: Adobe Illustrator 21.0.0, SVG Export Plug-In . SVG Version: 6.00 Build 0)  -->
<svg version="1.1" id="Warstwa_7" xmlns="http://www.w3.org/2000/svg" xmlns:xlink="http://www.w3.org/1999/xlink" x="0px" y="0px"
	 viewBox="0 0 1007 317.1" style="enable-background:new 0 0 1007 317.1;" xml:space="preserve">
<style type="text/css">
	.st0{fill:#EF8618;}
	.st1{fill:#3A3A3C;}
	.st2{fill:#2F363B;}
</style>
<title>logo</title>
<g id="Layer1_0_FILL">
	<path class="st0" d="M770.4,72v-2.6h-47.7v32.4c1.2-1.5,2.5-3,3.9-4.4C739.2,84.5,753.8,76,770.4,72 M770.4,113.1
		c-22,11.1-39,30-47.7,53v93.2h47.7V113.1 M704.3,12.4h-47.7v69.2c-14-8.2-29.9-12.3-47.7-12.3c-26.3,0-48.7,9.3-67.4,28
		c-18.7,18.7-28,41.1-28,67.4c0,26.3,9.3,48.7,28,67.4c18.7,18.7,41.1,28,67.4,28c26.6,0,49-9.3,67.4-28
		c10.5-10.5,18.1-22,22.8-34.6c0.3-1.6,0.7-3.3,1.3-4.8c0.5-1.6,1-3.2,1.3-4.8c1.8-7.3,2.7-14.8,2.6-22.3L704.3,12.4 M559,164.3
		c0-14.3,5.1-26.7,15.3-37.2c9.8-10,23.2-15.6,37.2-15.3c14.3,0,26.7,5.1,37.2,15.3c9.3,9.3,14.8,21.8,15.3,35v2.2
		c0.2,14-5.3,27.5-15.3,37.2c-10.5,10.2-22.9,15.3-37.2,15.3c-28.9,0.1-52.4-23.2-52.5-52.1C559,164.6,559,164.5,559,164.3"/>
	<path class="st1" d="M496.9,181c0.9-5.5,1.3-11.1,1.3-16.6c0-5.5-0.4-11-1.3-16.4V181L496.9,181z"/>
	<path class="st2" d="M402.7,68.9c-26.6,0-49,9.3-67.4,28c-18.4,18.4-27.7,40.6-28,66.5c0.6,27.4,9.9,50.2,28,68.3
		c5.9,6,12.6,11.3,19.7,15.8c14,8.2,29.9,12.3,47.7,12.3c26.3,0,48.7-9.3,67.4-28c14.6-14.6,23.5-31.5,26.7-50.8v-33
		c-3.2-19.4-12.1-36.4-26.7-51C451.5,78.3,429,69,402.7,68.9 M347.6,164.8c-0.2-14,5.3-27.4,15.3-37.2
		c10.5-10.2,22.9-15.3,37.2-15.3c28.9-0.1,52.4,23.2,52.5,52.1c0,0.1,0,0.3,0,0.4c0,14.3-5.1,26.7-15.3,37.2
		c-9.8,10-23.2,15.6-37.2,15.3c-14.3,0-26.7-5.1-37.2-15.3c-9.3-9.3-14.8-21.8-15.3-35L347.6,164.8 M204,165.2l0.4,93.2h47.3v-96.7
		c0.9-13.7,4.8-23.6,11.8-29.8c6.8-6.2,14.9-10.8,23.6-13.6c8.8-2.9,14.3-4.2,16.6-3.9V70.7h-4.4c-26.6,0-49,9.3-67.4,28
		C213.6,117,204.3,139.2,204,165.2 M190.9,164.8c0-26.3-9.3-48.7-28-67.4s-41.1-28-67.4-28c-26.6,0-49,9.3-67.4,28
		C9.7,115.7,0.3,137.9,0,163.9v153.2h47.7v-69.1c14,8.2,29.9,12.3,47.7,12.3c26.3,0,48.7-9.3,67.4-28S190.9,191.1,190.9,164.8
		 M92.8,112.7c28.9-0.1,52.4,23.2,52.5,52.1c0,0.1,0,0.3,0,0.4c0,14.3-5.1,26.7-15.3,37.2c-9.8,10-23.2,15.6-37.2,15.3
		c-14.3,0-26.7-5.1-37.2-15.3c-9.3-9.3-14.8-21.8-15.3-35c0-0.6,0-1.3,0-2.2c-0.3-14,5.3-27.5,15.3-37.2
		C66.1,117.8,78.5,112.7,92.8,112.7L92.8,112.7z"/>
</g>
<path class="st2" d="M575.2,254.3c11.7-13.3,22.9-25.8,33.6-37.5c-28-1.3-49.9-24.4-49.8-52.4c0-14.3,5.1-26.7,15.3-37.2
	c9.8-10,23.2-15.6,37.2-15.3c14.3,0,26.7,5.1,37.2,15.3c8.4,8.4,13.7,19.4,15,31.2c16.5-16.9,30.2-30.5,40.5-40.4V12.4h-47.7v69.2
	c-14-8.2-29.9-12.3-47.7-12.3c-26.3,0-48.7,9.3-67.4,28c-18.7,18.7-28,41.1-28,67.4c0,26.3,9.3,48.7,28,67.4
	C551,241.9,562.5,249.4,575.2,254.3z"/>
<path class="st2" d="M770.4,72v-2.6h-47.7v32.4c1.2-1.5,2.5-3,3.9-4.4C739.2,84.5,753.8,76,770.4,72"/>
<path class="st0" d="M998.3,133.2c-0.7-3.7-1.7-4.6-5.5-4.8c-6-0.3-12.1-0.9-18.1-1.1c-2,0.1-3.9-1-4.6-2.9
	c-0.4-0.9-0.9-1.7-1.4-2.5c-1.3-1.8-1.3-4.3,0-6.1c3.2-5.2,6.3-10.5,9.3-15.8c1.6-2.7,1.4-3.8-0.8-6.1c-2.7-2.8-5.6-5.5-8.2-8.5
	c-1.5-1.7-3.2-3.3-4.8-4.9s-3-1.9-5.1-0.7c-1,0.5-2,1.1-3,1.6c-4.9,2.7-9.7,5.5-14.7,8.1c-2.5,1.3-9-1.8-9.7-4.5
	c0-0.1-0.1-0.2-0.1-0.3c-0.2-1.5-0.4-3.1-0.4-4.6c0.2-4.9-0.5-9.7-0.4-14.5c0-0.5,0-1-0.1-1.5c-0.5-3.2-1-3.9-4.2-4.6
	c-6.1-1.3-12-3.2-18.2-4h-2.1c-1,0.3-1.8,0.9-2.3,1.9c-1.3,2.3-2.6,4.7-3.8,7.1c-1.9,3.5-3.7,7-5.6,10.4c-0.5,0.9-1,1.9-2.2,2
	c-1.8,0.1-3.5,0.3-5.3,0.5c-2.2,0.2-4.3-0.9-5.4-2.8c-3.4-5.1-7-10.2-10.5-15.2c-1.8-2.5-2.8-2.8-5.7-1.9
	c-5.2,1.7-10.3,3.4-15.4,5.1c-4.5,1.5-5.1,2.5-4.6,7.1c0,0.2,0,0.3,0.1,0.5c0.4,5.7,1,11.4,1.3,17c0.2,1.5-0.6,3-1.8,3.8
	c-1.1,0.8-2.3,1.5-3.3,2.4c-2.2,1.9-4.5,2.1-7.3,0.9c-5.6-2.5-11.3-4.7-16.9-7.1c-2.2-0.9-3.6-0.7-4.9,0.9c-4,4.9-7.9,9.7-11.8,14.7
	c-1.1,1.3-1.1,3.1-0.2,4.5c0.4,0.7,0.9,1.4,1.5,2.1c3.5,4.4,6.7,9,10.2,13.3c1.3,1.5,1.6,3.6,0.7,5.4c-0.9,1.8-1.6,3.6-2.3,5.5
	c-0.6,2-2.4,3.5-4.5,3.6c-6.2,1.1-12.5,2.2-18.7,3.4c-2,0.2-3.5,1.7-3.7,3.7c-0.4,2.5-0.7,5-1,7.5c-0.2,1.6,0.2,3.3-0.5,4.9v2
	c0.2,0.2,0.2,0.4,0,0.6c0,0,0,0,0,0v1.4c0.3,0.7,0.3,1.4,0,2v2c0.5,0.6,1.1,1,1.8,1.2c6,2.3,12.1,4.5,18.2,6.6
	c1.9,0.5,3.3,2.2,3.5,4.1c0.2,1.8,0.7,3.5,1,5.2c1,5.5,1.4,4.9-3.3,9.2c-3.9,3.6-7.7,7.3-11.7,10.8c-2.1,1.8-2.4,3.4-1.1,5.8
	c2.5,4.9,5,9.7,7.5,14.6c1.2,2.4,2.4,2.9,5.1,2.3c6.1-1.4,12.2-2.6,18.2-4.1c1.8-0.6,3.8,0,5.1,1.4c2,2,3.7,4.2,5.7,6.1
	c1.5,1.3,2.1,3.4,1.4,5.2c-1.6,6.1-3.2,12.2-4.7,18.4c-0.6,2.4,0,3.7,2.1,4.9c4.7,2.6,9.4,5.4,14.2,8c2.5,1.4,3.7,1.2,5.8-0.8
	c1.8-1.7,3.6-3.5,5.3-5.3c2.6-2.8,5.2-5.6,8-8.3c1.1-1.2,2.7-1.8,4.3-1.4c2.8,0.7,5.7,1.3,8.5,1.8c2,0.3,3.6,1.8,4.1,3.8
	c1.8,5.8,3.8,11.6,5.8,17.4c0.5,1.4,1.1,2.6,2.8,2.9h5.5c0.2-0.2,0.5-0.2,0.8-0.2h1.2c0.3,0,0.5,0,0.8,0.2h1.7
	c2.3-0.6,4.6-0.4,6.9-0.5c4-0.2,5.1-1.1,5.9-4.9c1.3-5.9,2.5-11.8,3.7-17.8c0.2-1.9,1.5-3.4,3.3-3.9c1.8-0.5,3.5-1.2,5.1-2
	c3.4-1.8,6.1-1,8.9,1.5c4,3.6,8.4,6.9,12.6,10.3c2,1.6,3.3,1.8,5.1,0.4c4.9-3.7,9.9-7.3,14.7-11.2c1.3-0.9,1.8-2.7,1.2-4.1
	c-0.3-0.9-0.6-1.7-0.9-2.6c-2.1-5.4-4.1-10.9-6.3-16.3c-0.8-1.6-0.5-3.5,0.6-4.8c1.3-1.7,2.5-3.4,3.7-5.1s2.9-2.3,5-2
	c6.2,0.8,12.3,1.5,18.5,2c2.5,0.2,3.7-0.6,4.6-2.9c2.1-5.6,4.1-11.2,6.1-16.9c0.8-2.2,0.5-3.4-1.3-4.8c-1.6-1.4-3.4-2.6-5.1-3.8
	c-3.7-2.7-7.3-5.4-11-8.1c-1.2-0.9-2.2-2-2.1-3.5c0.2-1.9,0.2-3.9,0.3-5.8c0.1-1.9,1.3-3.6,3.1-4.3c5.4-2.6,10.7-5.3,16.1-8
	c1.2-0.6,2.3-1.2,2.7-2.6v-2.1C1001.1,144.8,999.4,139.1,998.3,133.2z M929.3,202.4c-9.8,10-23.2,15.6-37.2,15.3
	c-14.3,0-26.7-5.1-37.2-15.3c-9.3-9.3-14.8-21.8-15.3-35v-2.2c-0.2-14,5.3-27.5,15.4-37.2c10.5-10.2,22.9-15.3,37.2-15.3
	c28.9-0.1,52.4,23.2,52.5,52.1c0,0.1,0,0.3,0,0.4C944.6,179.5,939.5,191.9,929.3,202.4L929.3,202.4z"/>
</svg>
